<svg width="20" height="32" viewBox="0 0 20 32" fill="none" xmlns="http://www.w3.org/2000/svg">
<g clip-path="url(#clip0_27_2)">
<path d="M19.4125 22.5875C20.1938 23.3687 20.1938 24.6343 19.4125 25.4156C19.025 25.8062 18.5125 26 18 26C17.4875 26 16.9763 25.8047 16.5863 25.414L10 18.8312L3.41438 25.4125C3.02375 25.8062 2.51187 26 2 26C1.48813 26 0.976875 25.8062 0.585938 25.4125C-0.195312 24.6312 -0.195312 23.3656 0.585938 22.5843L7.17344 15.9968L0.585938 9.41247C-0.195312 8.63123 -0.195312 7.3656 0.585938 6.58435C1.36719 5.8031 2.63281 5.8031 3.41406 6.58435L10 13.175L16.5875 6.58748C17.3687 5.80623 18.6344 5.80623 19.4156 6.58748C20.1969 7.36873 20.1969 8.63435 19.4156 9.4156L12.8281 16.0031L19.4125 22.5875Z" fill="#CF436B"/>
</g>
<defs>
<clipPath id="clip0_27_2">
<rect width="20" height="32" fill="white"/>
</clipPath>
</defs>
</svg>
